<?xml version="1.0" standalone="no"?>
<!DOCTYPE svg PUBLIC "-//W3C//DTD SVG 20010904//EN"
 "http://www.w3.org/TR/2001/REC-SVG-20010904/DTD/svg10.dtd">
<svg version="1.0" xmlns="http://www.w3.org/2000/svg"
 width="1057.000000pt" height="1057.000000pt" viewBox="0 0 1057.000000 1057.000000"
 preserveAspectRatio="xMidYMid meet">
<metadata>
Created by potrace 1.14, written by Peter Selinger 2001-2017
</metadata>
<g transform="translate(0.000000,1057.000000) scale(0.100000,-0.100000)"
fill="#000000" stroke="none">
<path d="M2342 10128 c-9 -9 -8 -16 6 -31 16 -19 16 -20 -6 -8 -13 7 -30 10
-38 7 -13 -5 -19 6 -15 27 1 5 -3 6 -8 2 -6 -3 -8 -12 -4 -20 4 -11 1 -13 -11
-9 -8 3 -37 -5 -63 -17 -27 -13 -52 -22 -56 -21 -5 1 -5 -2 -2 -8 4 -6 0 -19
-8 -28 -31 -36 -31 -29 -38 -429 -2 -111 -6 -201 -9 -201 -21 1 -30 -4 -24
-14 4 -6 3 -8 -3 -5 -6 4 -25 0 -42 -9 -18 -9 -40 -17 -49 -19 -9 -2 -18 -4
-19 -5 -2 -2 -6 -3 -10 -5 -5 -1 -28 -11 -53 -23 -25 -12 -51 -22 -57 -22 -7
0 -13 -4 -13 -10 0 -5 -3 -10 -7 -9 -18 3 -52 -14 -47 -22 3 -5 0 -9 -7 -9
-19 0 -49 -41 -49 -66 0 -19 -26 -38 -50 -37 -17 1 -82 -64 -99 -100 -14 -29
-33 -49 -63 -65 -37 -19 -90 -76 -86 -92 3 -10 -23 -50 -30 -48 -13 4 -56 -24
-80 -51 -37 -43 -42 -50 -42 -61 0 -13 -40 -49 -55 -50 -26 -2 -95 -85 -95
-114 0 -8 -21 -26 -47 -38 -49 -25 -114 -102 -105 -125 2 -7 0 -13 -6 -13 -6
0 -9 -8 -8 -17 2 -10 -2 -21 -7 -25 -16 -10 -16 -47 0 -41 7 3 13 0 13 -6 0
-6 -6 -11 -14 -11 -9 0 -13 -9 -11 -25 1 -14 -1 -25 -5 -25 -5 0 -7 -8 -5 -17
1 -10 0 -22 -3 -27 -3 -5 -7 -31 -8 -57 -1 -27 -5 -53 -9 -59 -3 -5 0 -10 7
-10 9 0 9 -3 -2 -10 -10 -6 -11 -10 -2 -10 6 0 12 -5 12 -11 0 -5 -3 -8 -8 -5
-4 2 -8 -10 -9 -27 -3 -37 -9 -82 -13 -82 -1 0 -3 -10 -4 -22 -2 -13 2 -23 8
-23 7 0 7 -3 -1 -8 -6 -4 -10 -26 -10 -49 1 -22 -1 -39 -5 -36 -5 2 -8 0 -8
-6 0 -5 5 -13 10 -16 8 -5 7 -11 -1 -21 -6 -8 -8 -14 -4 -14 4 0 2 -7 -5 -15
-10 -12 -10 -15 1 -15 10 0 10 -3 3 -8 -7 -4 -14 -29 -17 -57 -7 -65 -17 -95
-31 -95 -6 0 -4 -5 4 -10 11 -7 11 -10 2 -10 -7 0 -10 -4 -7 -10 3 -5 1 -10
-5 -10 -6 0 -8 -4 -5 -10 3 -5 1 -10 -4 -10 -6 0 -10 -3 -10 -7 4 -22 -2 -33
-13 -27 -8 5 -7 0 2 -11 9 -11 10 -16 2 -11 -7 4 -14 0 -18 -11 -3 -10 -21
-49 -39 -88 -19 -38 -39 -84 -45 -101 -6 -16 -25 -39 -43 -49 -18 -11 -40 -28
-50 -40 -23 -26 -49 -83 -42 -94 7 -13 -15 -28 -54 -36 -38 -8 -121 -88 -121
-116 0 -10 -5 -21 -11 -25 -8 -4 -7 -9 2 -14 8 -6 -3 -12 -31 -20 -75 -20
-175 -146 -156 -196 6 -15 4 -15 -10 -3 -16 13 -16 12 -5 -10 10 -18 10 -25 0
-35 -9 -8 -11 -7 -6 6 3 10 3 20 -2 22 -11 7 -10 -27 2 -41 5 -7 6 -13 1 -13
-5 0 -2 -4 6 -10 8 -5 11 -12 7 -17 -9 -9 -28 17 -21 29 3 4 1 8 -5 8 -5 0 -9
-9 -8 -20 1 -11 5 -20 9 -20 4 0 8 -12 8 -26 0 -26 29 -75 62 -105 10 -9 15
-19 11 -22 -3 -4 2 -9 11 -13 9 -3 16 -10 16 -16 0 -15 27 -38 35 -30 5 4 5 2
1 -5 -4 -7 11 -30 36 -55 24 -23 34 -36 23 -28 -19 13 -19 13 1 -10 12 -14 24
-33 27 -43 4 -10 11 -16 17 -12 5 3 12 -6 16 -20 3 -13 9 -23 14 -20 4 2 12
-7 19 -21 8 -18 17 -24 28 -20 13 5 14 4 3 -9 -11 -14 -7 -19 12 -16 5 0 7 -3
5 -7 -4 -13 46 -80 68 -91 11 -5 14 -10 7 -10 -12 -1 -9 -6 44 -65 13 -15 24
-29 24 -32 0 -12 28 -33 35 -26 4 4 5 -2 3 -13 -2 -15 2 -20 18 -19 16 0 20
-4 16 -18 -3 -12 9 -31 34 -55 22 -20 33 -34 27 -29 -22 12 -14 -9 10 -32 13
-12 27 -19 31 -15 4 4 4 0 0 -10 -4 -11 0 -19 10 -23 9 -3 16 -13 16 -21 0 -8
4 -11 10 -8 5 3 10 -1 10 -9 0 -9 5 -16 10 -16 6 0 10 -7 10 -15 0 -8 4 -15 9
-15 5 0 12 -8 15 -18 3 -10 22 -35 41 -55 19 -20 33 -37 30 -37 -3 0 3 -8 13
-18 9 -11 20 -17 24 -15 4 2 10 -2 14 -8 4 -8 3 -9 -4 -5 -18 11 -14 -8 6 -25
9 -9 23 -25 31 -37 8 -11 18 -19 23 -16 4 3 6 -1 3 -8 -3 -7 13 -33 36 -58 23
-25 41 -46 40 -47 -6 -13 2 -21 16 -16 10 4 14 2 10 -4 -8 -12 17 -36 26 -26
4 3 7 2 7 -4 0 -6 11 -8 25 -5 23 4 31 -5 26 -31 -1 -5 3 -5 9 -2 13 8 81 -66
73 -79 -3 -4 -9 -2 -14 5 -6 9 -9 10 -9 2 0 -6 7 -18 15 -27 8 -8 15 -21 15
-28 0 -13 30 -49 69 -80 11 -10 21 -15 21 -13 0 3 8 1 18 -4 13 -7 23 -6 31 2
10 9 11 9 6 -3 -4 -11 2 -15 20 -15 14 0 25 3 25 7 0 7 39 2 48 -7 3 -2 11 0
19 6 7 6 13 8 13 4 0 -4 7 -2 15 5 8 7 15 10 15 6 0 -16 55 25 119 87 74 72
116 130 106 147 -3 5 -2 10 2 10 5 0 9 10 10 23 1 15 92 111 278 295 227 225
278 270 289 260 8 -7 14 -15 14 -18 -1 -23 3 -40 10 -37 4 3 8 -5 8 -16 3 -40
20 -84 43 -111 9 -11 10 -16 4 -12 -7 4 -13 2 -13 -3 0 -6 4 -11 9 -11 5 0 11
-14 15 -31 4 -21 10 -28 18 -23 10 6 10 4 0 -8 -10 -12 -10 -18 -1 -23 7 -5 9
-21 6 -41 -4 -23 -2 -32 5 -28 7 4 7 0 1 -12 -6 -11 -9 -34 -8 -51 0 -18 -2
-33 -5 -33 -4 0 -6 -14 -5 -30 1 -17 -2 -33 -8 -37 -5 -3 -3 -9 4 -14 9 -5 9
-9 3 -9 -7 0 -11 -17 -9 -45 1 -24 -2 -42 -7 -39 -4 3 -8 1 -8 -3 0 -5 12 -16
28 -25 15 -10 22 -18 15 -18 -6 0 -15 5 -18 10 -12 19 -21 10 -20 -19 0 -16 3
-27 6 -25 14 8 17 -26 4 -40 -8 -7 -11 -16 -8 -20 4 -3 -3 -6 -14 -6 -32 0
-72 -48 -120 -145 -24 -49 -50 -96 -58 -105 -8 -9 -15 -21 -15 -27 0 -13 -66
-73 -80 -73 -5 0 -19 -18 -31 -40 -13 -22 -27 -40 -31 -40 -5 0 -7 -4 -4 -9
12 -18 -5 -38 -30 -35 -28 3 -30 -3 -10 -32 15 -20 5 -56 -11 -41 -4 5 -1 13
7 18 13 9 12 10 -2 5 -10 -3 -20 -1 -23 4 -4 6 -1 10 6 10 7 0 10 3 6 6 -3 3
-11 3 -17 -1 -7 -4 -4 -16 9 -34 15 -21 17 -31 9 -39 -14 -14 -28 -15 -28 -3
0 5 7 11 15 13 13 2 12 5 -4 15 -17 11 -20 10 -19 -10 1 -12 9 -31 17 -41 15
-18 15 -18 -4 -8 -19 9 -20 7 -20 -33 0 -24 3 -41 7 -39 9 6 4 -24 -7 -33 -4
-4 -5 -2 0 6 5 10 4 12 -4 7 -6 -4 -8 -12 -4 -18 7 -12 14 -90 15 -165 1 -24
4 -43 8 -43 4 0 7 -7 7 -15 0 -8 -4 -15 -9 -15 -5 0 -5 -8 0 -17 5 -10 10 -38
11 -62 0 -25 7 -48 14 -53 9 -6 9 -8 0 -8 -7 0 -13 -7 -13 -15 0 -8 4 -15 8
-15 4 0 8 -9 9 -20 1 -13 -2 -18 -10 -13 -7 4 -6 0 2 -10 16 -20 25 -23 15 -4
-4 6 2 3 14 -7 24 -21 31 -36 8 -17 -10 8 -16 9 -21 1 -3 -5 -2 -10 4 -10 6 0
8 -7 5 -15 -4 -8 1 -17 10 -21 11 -4 15 -13 10 -26 -4 -14 -2 -18 5 -13 8 5
10 -2 5 -22 -6 -24 -5 -26 8 -16 12 11 14 8 10 -17 -3 -19 0 -30 8 -30 7 0 10
-8 7 -20 -3 -11 -1 -20 5 -20 6 0 8 -7 4 -15 -3 -8 -1 -15 4 -15 6 0 10 -8 10
-18 0 -10 5 -23 10 -28 6 -6 12 -20 14 -31 6 -31 47 -126 63 -144 7 -8 13 -18
13 -22 0 -3 26 -48 58 -99 31 -51 63 -105 69 -120 7 -16 17 -28 23 -28 5 0 10
-6 10 -13 0 -8 9 -22 20 -32 11 -10 20 -15 20 -10 0 4 -8 14 -17 22 -15 13
-14 13 7 0 14 -9 24 -22 22 -32 -2 -11 1 -14 9 -9 7 4 18 -1 27 -12 14 -18 14
-18 10 2 -4 13 0 21 9 21 8 0 12 -6 8 -15 -7 -18 12 -42 34 -41 14 0 14 1 -1
7 -13 5 -15 11 -8 22 7 10 10 11 10 3 0 -7 7 -13 15 -13 18 0 19 -12 4 -27 -8
-8 -8 -13 0 -18 7 -3 10 -1 9 6 -2 7 5 15 15 17 9 2 17 -2 17 -8 0 -6 -5 -8
-12 -4 -7 4 -8 3 -4 -5 4 -6 11 -9 17 -6 5 3 25 -5 45 -18 19 -14 31 -28 26
-31 -6 -3 -12 0 -15 6 -3 7 -5 3 -4 -8 1 -18 4 -20 18 -11 13 8 28 2 71 -29
30 -22 53 -44 51 -50 -2 -7 3 -14 12 -18 9 -3 13 -2 10 4 -3 6 -1 10 4 10 10
0 16 -22 12 -43 -1 -5 3 -6 9 -2 6 3 8 11 5 16 -3 5 2 6 11 2 15 -6 15 -8 -6
-25 -25 -21 -20 -24 10 -6 17 11 22 10 30 -2 5 -8 13 -15 17 -15 4 -1 18 -7
30 -15 21 -14 21 -15 5 -34 -11 -14 -12 -17 -2 -10 16 12 47 11 58 -2 4 -4 -1
-4 -10 -1 -28 10 -17 -25 22 -69 19 -22 31 -31 27 -21 -3 9 -2 17 3 17 6 0 10
-9 10 -20 0 -11 7 -20 16 -20 8 0 13 -4 10 -9 -3 -5 8 -14 24 -21 16 -7 27
-16 24 -21 -3 -5 2 -9 10 -9 9 0 16 -4 16 -10 0 -5 10 -10 22 -10 12 0 19 -3
15 -6 -10 -11 74 -78 87 -69 3 3 4 2 1 -1 -2 -4 6 -15 20 -26 15 -11 22 -26
20 -38 -2 -11 0 -20 6 -20 5 0 9 -13 9 -30 0 -16 5 -30 10 -30 6 0 10 -9 10
-20 0 -11 5 -20 10 -20 6 0 9 -3 9 -7 -5 -31 2 -63 13 -57 7 5 9 2 5 -8 -3 -9
-3 -19 1 -23 4 -4 7 -10 8 -13 1 -11 17 -46 26 -57 29 -38 115 -142 125 -153
7 -8 18 -22 24 -33 5 -11 15 -16 21 -13 7 4 8 3 4 -4 -4 -6 2 -17 14 -24 11
-7 20 -21 20 -31 0 -11 6 -17 18 -15 12 2 17 -3 16 -18 0 -12 5 -21 12 -20 7
1 13 -3 13 -8 -1 -5 6 -13 15 -18 9 -5 14 -13 11 -17 -2 -5 2 -14 9 -20 11 -9
16 -9 22 0 5 8 3 9 -6 4 -9 -6 -11 -4 -5 5 5 9 4 11 -3 6 -17 -10 -15 -1 4 14
12 11 15 11 12 -1 -2 -8 2 -13 8 -12 6 1 11 -4 11 -12 0 -8 -4 -12 -8 -9 -4 2
-7 -5 -6 -16 1 -20 22 -34 38 -24 5 3 12 -2 15 -10 3 -9 9 -14 13 -12 4 3 7
-6 7 -19 0 -13 -4 -21 -8 -19 -5 3 -5 10 -2 16 5 7 2 8 -6 3 -10 -6 -8 -12 9
-26 14 -11 20 -24 15 -31 -4 -7 -4 -10 1 -6 8 8 45 -28 45 -44 0 -4 5 -8 11
-8 5 0 7 4 4 10 -3 5 -1 10 4 10 15 0 14 -13 -1 -29 -11 -11 -10 -13 4 -8 22
8 31 -3 16 -20 -9 -11 -7 -13 15 -9 19 3 24 1 20 -10 -3 -8 -10 -11 -16 -7 -6
4 -7 1 -3 -6 5 -7 15 -10 23 -6 14 5 14 3 2 -12 -8 -9 -9 -14 -4 -11 12 7 36
-17 27 -28 -4 -4 -2 -4 4 -1 7 4 18 -1 25 -10 12 -14 12 -15 1 -9 -11 7 -12 4
-4 -11 16 -30 40 -46 54 -37 10 6 11 5 1 -7 -10 -12 -8 -18 7 -29 11 -8 20
-20 20 -26 0 -6 8 -18 18 -25 16 -13 16 -13 2 6 -14 19 -14 19 2 6 10 -7 16
-17 13 -21 -7 -11 35 -61 46 -54 5 3 8 1 7 -4 -3 -11 18 -45 45 -74 9 -10 14
-18 10 -18 -3 0 5 -9 18 -21 13 -12 23 -24 22 -28 -1 -4 18 -17 43 -30 24 -13
41 -27 39 -31 -3 -4 14 -17 38 -29 65 -33 131 -73 138 -84 4 -5 11 -7 17 -3 5
3 13 -1 16 -10 4 -10 14 -14 26 -11 11 3 18 1 14 -4 -3 -5 1 -9 8 -9 8 0 20
-9 28 -20 8 -11 22 -20 31 -20 10 0 25 -7 33 -16 9 -8 16 -13 16 -9 0 4 7 -1
16 -9 8 -9 21 -13 27 -9 7 3 9 3 5 -2 -4 -4 27 -28 70 -53 42 -25 80 -50 84
-56 4 -6 8 -7 8 -3 0 8 59 -21 70 -34 12 -13 39 -17 44 -6 2 7 5 1 5 -12 1
-21 3 -22 18 -10 14 12 15 12 9 0 -7 -10 -3 -12 14 -6 19 6 22 4 16 -10 -5
-15 -4 -16 9 -5 8 7 15 9 15 4 0 -5 13 -9 30 -10 16 -1 28 2 26 5 -2 3 18 6
44 6 27 -1 46 3 44 7 -8 13 11 9 25 -4 11 -11 13 -10 8 5 -6 15 -3 16 13 7 26
-14 30 -13 30 9 0 11 4 23 10 26 5 3 7 0 4 -8 -3 -8 1 -14 10 -14 8 0 13 4 10
9 -5 7 10 12 28 9 4 0 5 6 2 14 -4 9 -1 15 7 15 7 0 22 8 33 17 20 17 20 17 7
0 -7 -9 -10 -17 -5 -18 5 0 17 -2 27 -4 9 -2 15 1 11 6 -3 5 -10 6 -16 3 -6
-4 -8 -2 -5 4 4 5 16 8 27 5 18 -5 25 5 21 30 -1 4 8 3 18 -3 16 -8 24 -6 42
12 12 13 19 16 15 8 -5 -9 -2 -8 7 3 8 9 22 17 31 17 9 0 16 5 16 10 0 6 8 14
18 17 9 4 50 28 90 55 41 26 76 48 78 48 3 0 10 5 17 10 42 35 91 70 99 70 5
0 6 4 3 10 -3 5 5 15 19 21 16 8 22 17 19 27 -4 10 -2 13 5 8 6 -4 17 2 24 14
7 11 18 20 25 20 7 0 13 5 13 10 0 6 10 22 23 36 52 58 57 64 50 64 -5 0 0 5
10 11 9 6 14 15 11 21 -4 7 -2 8 4 4 6 -4 17 2 24 14 7 11 18 20 24 20 11 0
39 49 36 62 -1 4 5 5 13 2 8 -4 15 -1 15 5 0 7 24 36 53 65 54 56 107 115 107
122 0 2 20 24 45 48 25 25 45 47 45 50 0 3 18 23 40 45 38 37 52 60 30 46 -16
-10 -11 1 7 16 15 12 16 12 8 -1 -5 -8 13 8 41 35 27 28 48 52 47 54 -1 2 14
19 33 38 21 20 33 40 30 49 -3 8 -1 14 4 14 6 0 10 -6 10 -12 0 -7 6 -4 12 7
6 11 17 24 25 28 7 4 13 13 13 18 0 6 -6 7 -12 3 -8 -4 -10 -3 -5 2 8 9 12 10
38 13 6 0 9 8 5 16 -3 8 0 14 6 12 6 -1 13 4 16 12 2 8 0 11 -6 7 -5 -3 -12 1
-15 9 -5 11 -1 12 18 5 19 -7 23 -6 19 5 -3 8 9 28 28 45 18 18 27 29 20 25
-16 -8 -16 12 1 22 8 4 22 21 33 38 14 21 15 27 4 21 -8 -5 -5 2 8 16 12 13
19 28 15 31 -3 4 -1 7 6 7 8 0 11 6 7 16 -3 8 -2 12 4 9 6 -3 10 1 10 9 0 9 5
16 11 16 5 0 8 4 5 9 -3 4 3 16 14 26 11 10 20 26 20 37 0 10 5 18 11 18 6 0
8 7 5 16 -4 10 -2 13 6 8 8 -5 9 -2 5 9 -3 10 -2 17 3 17 6 0 8 15 6 33 -3 17
-3 26 0 20 10 -23 20 -14 22 19 2 18 8 36 15 40 9 6 9 8 0 8 -7 0 -13 5 -13
10 0 6 7 10 15 10 8 0 14 3 14 8 -3 20 2 32 14 30 6 -2 11 2 10 8 -1 7 5 10
15 8 9 -3 31 7 47 21 17 15 40 35 52 45 12 10 33 26 47 35 14 10 26 24 26 32
0 8 5 11 10 8 6 -3 10 -1 10 4 0 6 -5 11 -12 11 -6 0 -8 3 -5 6 4 4 14 1 24
-7 15 -12 16 -12 10 3 -8 22 2 50 14 42 5 -3 9 -1 9 5 0 7 8 7 25 1 18 -7 23
-6 19 4 -3 7 1 13 8 13 30 0 95 40 144 90 28 29 57 53 63 53 6 0 11 5 11 11 0
5 5 7 10 4 6 -3 10 -1 10 5 0 6 11 15 24 20 22 8 49 28 96 70 9 8 25 20 36 26
10 6 19 20 19 30 0 13 7 19 22 18 13 -1 20 3 17 11 -3 7 10 25 28 40 18 15 26
24 18 20 -8 -4 -6 2 6 12 29 25 85 109 77 117 -4 3 2 6 11 6 13 0 17 6 13 20
-3 11 -2 18 3 15 8 -5 75 79 100 125 14 26 18 36 25 80 2 14 8 37 14 53 6 15
8 27 4 27 -3 0 1 8 10 18 13 15 14 21 4 32 -7 8 -8 11 -1 7 13 -8 27 20 18 34
-3 5 -1 9 4 9 5 0 12 9 15 20 3 13 1 18 -6 14 -7 -3 -5 0 4 8 9 7 20 24 24 38
4 14 12 31 17 37 7 9 6 13 -3 13 -12 0 -12 2 -1 9 8 5 15 20 15 35 1 14 6 26
11 26 5 0 3 7 -4 15 -10 12 -9 15 4 15 14 0 15 4 6 21 -7 11 -9 23 -6 27 3 3
6 0 6 -6 0 -7 3 -12 8 -12 4 0 8 24 9 53 2 62 11 191 17 229 2 16 -1 28 -7 28
-6 0 -6 4 0 13 19 23 21 67 4 77 -10 6 -11 10 -3 10 6 0 12 5 12 11 0 5 -4 7
-10 4 -5 -3 -10 -1 -10 4 0 6 6 11 13 11 9 0 8 3 -2 9 -7 5 -10 14 -7 20 4 6
0 14 -8 17 -9 3 -14 10 -11 15 3 4 -5 15 -19 24 -23 15 -58 83 -35 70 9 -6
-21 52 -46 87 -15 22 -100 85 -89 66 6 -10 5 -11 -8 -1 -8 7 -17 10 -21 7 -4
-4 -19 27 -22 46 0 3 -17 30 -37 60 -20 30 -38 62 -40 70 -2 8 -10 21 -18 28
-13 12 -13 13 0 6 12 -6 13 -5 3 7 -7 9 -20 35 -28 59 -9 24 -23 53 -33 64
-12 14 -13 17 -2 11 13 -8 13 -7 0 11 -8 10 -19 22 -23 25 -5 3 -8 9 -7 13 2
9 -11 69 -18 81 -4 5 -5 23 -3 38 1 15 -3 34 -9 42 -7 8 -8 20 -4 27 12 18 13
68 3 68 -5 0 -9 5 -9 11 0 5 4 8 9 4 9 -5 6 33 -4 62 -2 7 -1 14 3 17 4 2 7
22 7 43 0 24 7 45 18 56 10 10 16 25 13 33 -3 8 -1 14 5 14 6 0 8 4 5 9 -4 5
-1 11 5 13 6 2 12 16 12 31 1 15 6 27 11 27 4 0 6 7 2 15 -3 8 -1 15 4 15 6 0
10 7 10 15 0 19 3 19 51 -6 23 -11 38 -16 34 -10 -3 6 -1 11 4 11 6 0 11 -5
11 -12 0 -6 3 -8 6 -5 4 4 19 -2 34 -13 20 -14 27 -27 25 -45 -1 -14 1 -25 5
-25 4 0 10 -12 13 -28 3 -15 28 -48 59 -77 54 -51 65 -57 105 -57 28 -1 96
-56 89 -74 -14 -37 69 -147 133 -175 19 -9 31 -22 32 -34 0 -11 3 -14 6 -7 2
6 12 12 21 12 15 0 15 -2 2 -10 -13 -9 -13 -10 0 -10 13 0 13 -2 0 -11 -12 -9
-12 -10 3 -5 10 3 21 6 23 6 3 0 3 4 -1 9 -3 5 0 13 7 17 7 4 10 4 6 -1 -4 -4
-3 -14 4 -22 9 -11 8 -13 -2 -11 -7 2 -14 -2 -17 -8 -4 -11 65 -60 80 -56 4 1
7 -5 7 -15 0 -9 3 -14 6 -10 3 3 17 -4 30 -16 42 -40 53 -47 66 -45 7 2 12 -3
10 -10 -2 -10 2 -10 17 -2 25 13 31 13 31 -1 0 -5 -4 -7 -10 -4 -5 3 -10 1
-10 -4 0 -14 17 -14 26 0 4 8 9 7 15 -2 6 -10 9 -11 9 -1 0 6 9 12 21 12 15 0
19 -5 15 -16 -3 -9 -2 -12 5 -8 6 3 8 17 4 31 -5 22 -4 23 8 12 8 -8 17 -21
20 -29 4 -8 4 0 1 19 -5 30 -4 32 9 20 8 -8 13 -17 11 -20 -2 -3 3 -6 11 -6 8
0 11 5 7 11 -12 20 -10 35 4 29 8 -3 11 -10 7 -16 -3 -6 -1 -7 6 -3 6 4 9 11
7 14 -2 4 4 19 14 32 16 21 21 23 32 11 11 -11 11 -13 -1 -6 -8 4 -17 2 -22
-6 -14 -23 -10 -36 5 -16 8 10 17 18 20 18 3 -1 8 -1 11 -1 2 0 0 12 -5 26 -7
17 -7 23 0 19 6 -3 13 1 16 10 6 14 8 14 19 -1 11 -16 14 -15 29 9 10 14 14
32 10 38 -4 7 -3 9 4 5 14 -8 45 23 38 40 -3 9 0 11 11 7 10 -4 14 -2 10 4 -4
6 0 14 8 17 8 3 14 9 13 13 -2 5 18 30 44 57 26 27 45 52 43 56 -3 4 2 11 11
14 8 3 13 10 10 15 -3 5 1 12 10 15 8 3 12 10 9 16 -3 5 2 10 11 10 10 0 14 3
11 7 -4 3 2 12 13 20 11 8 20 23 20 33 0 10 5 22 12 26 7 5 8 2 3 -7 -4 -8 1
-5 12 6 11 11 19 23 16 28 -2 4 1 7 7 7 6 0 8 5 5 10 -3 6 -1 10 5 10 6 0 8 5
4 12 -4 6 -3 8 3 5 6 -4 19 3 29 16 13 14 14 18 4 12 -9 -6 -3 1 12 15 16 14
28 30 28 37 0 7 9 17 20 23 11 6 20 17 20 24 0 8 7 19 15 26 8 7 12 16 9 21
-3 5 3 6 12 2 12 -4 15 -3 10 5 -4 7 -2 12 4 12 6 0 8 5 5 10 -3 6 -1 10 4 10
6 0 11 7 11 15 0 8 6 14 13 13 6 -2 11 3 9 10 -1 6 2 12 8 12 5 0 10 7 10 16
0 8 4 13 9 9 5 -3 12 4 16 15 3 11 17 28 30 38 13 11 22 22 19 25 -3 3 3 14
13 24 10 11 32 36 48 57 17 21 36 44 43 51 6 8 12 17 12 22 0 5 9 15 20 23 11
8 20 19 20 24 0 5 23 35 50 67 28 32 50 62 50 67 0 6 4 12 8 14 13 5 104 128
106 143 1 8 6 18 11 22 4 5 5 1 0 -7 -11 -21 -4 -13 51 55 66 82 84 120 84
181 0 64 -16 96 -84 166 -29 31 -51 59 -48 62 3 3 -2 6 -11 6 -9 0 -17 5 -17
12 0 7 -13 26 -29 42 -16 17 -51 54 -78 83 -27 28 -62 55 -78 59 -34 9 -55 26
-55 47 0 52 -95 145 -155 151 -5 1 -9 10 -7 20 2 10 -1 15 -7 12 -6 -4 -9 5
-6 24 2 20 -2 33 -13 40 -9 5 -12 10 -6 10 8 0 5 13 -7 37 -10 21 -19 43 -19
50 0 7 -5 13 -12 13 -6 0 -9 3 -6 6 4 3 -9 44 -27 91 -33 82 -46 125 -51 168
-2 11 -6 43 -9 70 -4 28 -8 66 -9 87 0 20 -5 34 -9 31 -4 -2 -5 8 -1 23 6 21
4 25 -7 19 -11 -7 -12 -6 -3 6 12 15 15 49 4 49 -3 0 -6 17 -5 38 1 20 -4 40
-9 44 -7 5 -7 8 1 8 9 0 10 7 3 24 -5 13 -6 27 -3 30 4 3 2 6 -4 6 -5 0 -9 20
-8 45 0 26 -3 45 -9 45 -7 0 -6 4 1 8 10 6 9 14 -2 35 -7 15 -11 27 -7 27 4 0
7 14 7 30 0 17 -3 30 -6 30 -3 0 -6 13 -7 29 0 17 -6 40 -12 52 -21 38 -63 80
-76 75 -9 -3 -11 1 -8 12 5 14 3 13 -10 -2 -16 -20 -16 -20 -16 1 0 15 -6 20
-23 18 -34 -4 -277 240 -281 281 -4 50 -31 87 -153 208 -148 148 -198 190
-215 180 -8 -5 -8 -1 2 11 14 17 14 18 -7 6 -20 -10 -23 -9 -23 9 0 12 -5 18
-10 15 -6 -4 -8 -11 -5 -16 3 -5 -1 -6 -10 -3 -14 6 -14 9 2 27 18 19 17 20
-3 9 -17 -9 -24 -9 -33 2 -6 7 -8 16 -4 19 8 9 -17 38 -28 31 -5 -3 -9 -1 -9
4 0 9 -79 49 -90 45 -3 0 -14 4 -25 10 -11 6 -25 12 -31 13 -14 2 -57 44 -46
44 6 0 8 142 3 203 -1 5 -7 5 -13 1 -10 -6 -10 -4 -2 7 6 8 10 42 8 79 -2 36
-4 102 -5 147 -2 73 -4 81 -18 70 -13 -10 -12 -7 2 15 13 21 14 26 3 22 -8 -3
-17 -1 -21 5 -3 6 0 11 7 11 13 0 -50 44 -65 45 -5 0 -15 9 -23 19 -8 11 -14
17 -14 13 0 -4 -11 0 -25 9 -24 16 -129 29 -121 15 5 -7 -19 -12 -65 -14 -17
-1 -25 -6 -22 -14 3 -7 10 -10 16 -6 6 3 7 1 3 -6 -4 -6 -12 -9 -17 -6 -5 4
-9 2 -9 -3 0 -12 -34 -11 -42 2 -5 6 -8 1 -8 -12 0 -13 -4 -20 -10 -17 -6 4
-7 11 -4 17 4 7 2 8 -5 4 -6 -4 -9 -12 -6 -17 4 -5 1 -9 -5 -9 -6 0 -29 -17
-52 -37 -73 -68 -283 -280 -297 -301 -8 -12 -19 -18 -25 -15 -6 4 -4 -2 4 -12
14 -17 13 -18 -4 -12 -14 6 -17 4 -10 -5 5 -7 9 -20 8 -28 -1 -8 -2 -21 -3
-27 0 -7 -4 -12 -8 -12 -5 1 -10 1 -13 -1 -3 -1 -22 -3 -43 -5 -32 -3 -36 -1
-26 11 9 11 14 12 19 3 6 -8 9 -8 15 1 4 6 13 9 20 6 7 -2 18 7 24 20 6 15 7
23 1 19 -5 -3 -18 -1 -29 5 -25 13 -38 -4 -19 -27 11 -15 11 -16 -5 -10 -10 4
-21 7 -23 7 -3 0 -2 6 2 13 4 7 3 8 -2 4 -5 -5 -9 -14 -10 -20 -1 -7 -5 -23
-9 -36 -8 -24 -8 -24 -27 10 -11 19 -16 25 -12 14 16 -49 16 -55 1 -55 -9 0
-21 -8 -26 -17 -6 -10 -11 -14 -11 -10 0 5 -16 0 -36 -12 -19 -12 -42 -21 -50
-21 -8 0 -14 -5 -14 -11 0 -5 5 -7 12 -3 7 4 8 3 4 -5 -6 -9 -11 -9 -22 0 -11
9 -16 6 -23 -12 -5 -13 -10 -20 -10 -16 -1 5 -8 1 -17 -7 -8 -9 -21 -13 -27
-9 -6 4 -8 1 -5 -9 4 -8 0 -15 -8 -15 -7 0 -11 4 -8 9 3 4 -2 5 -10 2 -9 -3
-16 -12 -16 -19 0 -8 -5 -17 -12 -21 -7 -4 -8 -3 -4 4 16 26 -14 10 -43 -23
-17 -20 -31 -33 -31 -30 0 3 -17 -11 -37 -32 -21 -21 -42 -40 -48 -42 -5 -1
-9 -9 -7 -16 2 -10 -3 -13 -14 -8 -11 4 -15 2 -11 -4 4 -6 0 -14 -9 -17 -10
-4 -13 -1 -9 7 3 6 -2 2 -11 -10 -9 -13 -23 -23 -32 -23 -8 0 -12 -3 -8 -7 3
-4 -6 -13 -21 -20 -16 -7 -19 -11 -9 -8 16 5 17 3 6 -10 -7 -8 -16 -12 -21
-10 -11 7 -30 -30 -21 -41 4 -5 0 -3 -9 4 -13 10 -19 8 -33 -6 -9 -10 -13 -23
-9 -28 5 -5 4 -6 -1 -1 -5 4 -18 -1 -29 -10 -10 -10 -21 -17 -23 -15 -12 7
-15 0 -4 -13 11 -13 10 -14 -3 -9 -11 4 -21 -4 -32 -25 -18 -35 -31 -43 -15
-8 11 22 11 22 -9 -2 -12 -12 -18 -28 -14 -34 4 -6 0 -8 -9 -4 -27 10 -40 -14
-20 -37 15 -19 16 -20 0 -7 -18 13 -38 8 -38 -10 0 -6 5 -7 12 -3 7 4 8 3 4
-4 -4 -6 -13 -9 -22 -5 -8 3 -14 2 -13 -3 4 -22 -2 -35 -13 -28 -8 5 -9 2 -4
-12 4 -10 4 -15 0 -12 -3 4 -13 1 -20 -7 -17 -17 -18 -29 -2 -19 7 4 8 3 4 -4
-4 -6 -14 -8 -24 -5 -19 7 -52 42 -52 55 0 4 -5 8 -11 8 -5 0 -7 -5 -3 -12 4
-7 3 -8 -5 -4 -6 4 -9 12 -6 17 4 5 1 9 -4 9 -6 0 -11 7 -11 15 0 8 -5 15 -11
15 -5 0 -8 4 -5 9 4 5 3 11 -2 13 -4 1 -23 23 -42 48 -53 67 -76 90 -91 90
-11 0 -11 2 1 10 13 8 12 10 -3 10 -11 0 -15 4 -11 12 5 8 2 9 -12 4 -10 -4
-15 -4 -11 0 4 4 -1 13 -11 21 -9 8 -11 11 -3 7 7 -4 3 7 -10 25 -12 17 -26
31 -31 31 -4 0 -8 6 -8 13 0 6 -20 33 -45 59 -25 27 -45 53 -45 59 0 5 -4 7
-10 4 -5 -3 -10 2 -10 11 0 10 -3 14 -6 11 -4 -3 -15 5 -26 18 -11 14 -24 23
-29 20 -5 -4 -20 5 -34 19 -17 17 -25 20 -25 11 0 -8 5 -15 12 -15 6 0 8 -3 5
-7 -4 -3 -16 2 -28 13 -12 10 -23 18 -26 16 -3 -2 -8 0 -11 4 -4 4 0 3 8 -1
13 -8 13 -6 2 7 -7 9 -21 15 -30 13 -9 -2 -21 -4 -27 -5 -22 -5 -29 1 -15 11
12 8 12 10 1 7 -27 -8 -20 -33 10 -34 16 -1 27 2 24 6 -2 3 2 7 10 7 11 0 12
-4 4 -13 -7 -8 -6 -13 3 -16 8 -3 6 -7 -6 -11 -9 -4 -15 -3 -11 3 3 5 -4 8
-15 7 -11 -1 -20 -6 -20 -12 0 -5 -5 -2 -11 8 -5 9 -15 17 -20 17 -6 0 -8 -4
-5 -9 3 -5 -1 -11 -9 -15 -20 -7 -19 8 1 29 13 13 14 19 5 28 -10 9 -12 9 -9
-2 2 -7 -3 -16 -11 -19 -8 -3 -11 0 -7 7 5 7 1 9 -8 5 -15 -6 -20 -17 -17 -36
0 -4 -9 -7 -20 -5 -14 1 -23 -4 -24 -15 -3 -19 10 -24 20 -8 8 13 25 13 25 -1
0 -5 -4 -8 -9 -5 -5 3 -14 -1 -21 -9 -7 -8 -16 -12 -21 -9 -5 3 -9 -2 -9 -11
0 -8 -7 -18 -15 -21 -8 -4 -12 -10 -9 -15 3 -5 1 -9 -3 -9 -15 0 -20 -129 -6
-139 5 -3 7 -17 5 -31 -3 -24 -3 -95 -1 -170 1 -19 -1 -46 -3 -60 -3 -14 1
-46 7 -71 8 -27 9 -52 4 -60 -13 -20 -11 -67 5 -127 8 -28 11 -50 6 -47 -15 9
-17 -67 -2 -81 9 -9 9 -14 2 -14 -7 0 -9 -8 -5 -20 4 -11 1 -26 -7 -33 -11
-11 -82 -94 -98 -116 -19 -24 -50 -42 -62 -35 -21 14 -52 11 -66 -6 -8 -8 -11
-9 -7 -2 7 13 -4 16 -45 12 -40 -3 -45 -4 -52 -15 -5 -6 -8 -5 -8 2 0 13 -59
11 -82 -3 -6 -4 -9 -3 -5 2 3 5 -18 8 -49 6 -35 -3 -52 -8 -47 -14 4 -7 1 -8
-8 -2 -20 12 -62 13 -76 2 -9 -7 -13 -7 -13 0 0 6 -6 9 -12 7 -23 -8 -162 -14
-185 -9 -15 4 -28 21 -39 50 -14 36 -19 42 -31 33 -11 -10 -12 -8 -7 6 5 13 4
16 -4 11 -9 -5 -9 -1 -2 18 5 14 6 28 1 30 -5 3 -8 16 -7 28 1 13 -3 41 -9 63
-6 22 -10 77 -10 122 0 46 -3 83 -7 83 -4 0 -5 18 -3 40 2 23 1 38 -4 36 -4
-3 -8 1 -8 9 0 8 4 15 8 15 8 0 0 40 -12 56 -5 6 -6 14 -2 18 11 11 11 56 0
56 -5 0 -3 8 4 17 12 14 12 16 0 9 -11 -7 -11 -5 -3 10 6 11 7 27 1 42 -5 13
-5 21 0 18 4 -3 6 6 3 19 -2 14 -7 25 -11 25 -3 0 -4 23 -2 51 2 36 -1 54 -10
60 -10 6 -11 9 -1 9 6 0 12 5 12 11 0 5 -5 7 -11 3 -8 -5 -9 -2 -1 12 8 14 7
23 -5 36 -14 15 -14 20 -2 35 8 9 9 14 3 10 -7 -4 -15 0 -18 9 -4 10 -2 13 6
8 7 -4 1 8 -12 27 -13 19 -30 38 -37 42 -7 5 -10 13 -7 19 4 7 2 8 -4 4 -7 -4
-12 -3 -12 3 0 11 -38 26 -57 23 -7 -2 -13 2 -13 8 0 5 -5 10 -11 10 -5 0 -7
-6 -3 -12 6 -10 4 -10 -7 -2 -8 6 -23 10 -34 9 -11 -2 -34 -4 -51 -6 -21 -2
-30 -7 -27 -16 3 -7 -1 -13 -8 -13 -7 0 -24 -10 -37 -22 -14 -13 -22 -17 -18
-10 4 6 2 12 -3 12 -6 0 -12 -4 -12 -10 -1 -5 -2 -16 -3 -22 0 -7 -6 -13 -12
-13 -17 0 -83 -78 -77 -89 4 -5 2 -6 -4 -3 -11 7 -48 -32 -39 -41 11 -10 -15
-31 -31 -25 -13 5 -15 2 -11 -15 4 -16 2 -19 -10 -15 -11 5 -14 2 -9 -10 4
-12 2 -14 -10 -10 -13 5 -15 2 -11 -15 4 -13 2 -20 -4 -16 -5 3 -18 -3 -29
-15 -11 -12 -17 -21 -14 -21 3 0 0 -6 -7 -14 -7 -8 -16 -12 -20 -9 -5 2 -8 -3
-8 -12 0 -8 -7 -18 -15 -21 -8 -4 -12 -10 -9 -15 3 -5 0 -9 -6 -9 -15 0 -40
-25 -40 -40 0 -6 -5 -8 -12 -4 -8 5 -9 2 -5 -10 4 -9 3 -15 -1 -13 -4 2 -18
-8 -32 -21 -14 -14 -18 -22 -10 -17 8 4 2 -4 -15 -19 -16 -14 -35 -25 -40 -26
-10 0 -28 20 -91 98 -14 17 -30 30 -35 26 -5 -3 -9 1 -9 9 0 7 -12 19 -26 25
-14 7 -22 17 -19 22 3 6 -1 10 -10 10 -19 0 -47 25 -38 34 4 3 0 6 -8 6 -8 0
-20 -5 -25 -10 -7 -7 -11 -6 -11 4 0 8 4 13 9 10 4 -3 8 -1 8 5 0 6 -11 13
-25 17 -14 3 -23 10 -20 14 6 10 -20 32 -28 23 -4 -3 -7 1 -7 10 0 8 -9 19
-20 22 -11 3 -20 11 -20 18 0 8 -3 8 -12 -1 -7 -7 -17 -12 -23 -12 -5 0 -3 5
5 10 11 7 11 10 2 10 -7 0 -10 5 -7 10 3 6 1 10 -5 10 -6 0 -8 5 -4 12 4 7 3
8 -4 4 -6 -4 -9 -14 -6 -24 5 -16 5 -16 -6 0 -6 10 -18 15 -28 12 -9 -3 -6 1
7 9 l24 15 -21 6 c-12 4 -26 4 -32 1 -5 -3 -10 -1 -10 5 0 6 -4 9 -8 6 -5 -3
-9 1 -10 9 -1 8 -3 22 -4 30 -1 8 -5 12 -10 9 -4 -3 -11 2 -14 10 -4 10 -19
16 -40 16 -36 0 -42 8 -21 29 10 11 10 13 0 7 -8 -4 -13 -1 -13 8 0 9 -6 16
-14 16 -8 0 -18 9 -21 21 -4 11 -9 19 -11 16 -3 -2 -19 9 -36 25 -17 16 -33
26 -36 23 -3 -2 -10 0 -17 5 -6 5 -20 11 -31 13 -10 2 -28 8 -39 14 -11 6 -26
8 -32 6 -7 -3 -16 2 -19 11 -3 9 -10 13 -15 10 -5 -3 -9 0 -9 7 0 6 -8 9 -20
6 -10 -3 -18 -2 -17 2 1 4 -22 30 -50 59 -29 29 -53 56 -53 59 0 9 -50 53 -60
53 -5 0 -12 5 -16 12 -5 7 -3 8 7 3 13 -8 -51 62 -158 172 -23 24 -46 43 -52
43 -5 0 -13 5 -17 12 -5 7 -3 8 6 3 8 -5 0 8 -16 28 -27 34 -55 52 -38 25 4
-7 3 -8 -5 -4 -6 4 -9 12 -5 17 8 13 -52 73 -65 65 -5 -4 -12 -2 -16 4 -4 6
-10 8 -14 6 -3 -3 -7 4 -7 15 0 18 2 19 12 4 7 -9 15 -12 18 -7 3 5 -6 15 -20
23 -21 11 -27 11 -33 0 -6 -9 -11 -10 -15 -2 -4 6 -2 11 3 11 18 0 12 14 -11
29 -21 13 -22 13 -9 -2 16 -20 8 -22 -20 -6 -16 8 -18 13 -8 25 14 17 8 19 -9
2z m409 -395 c13 -16 12 -17 -3 -4 -10 7 -18 15 -18 17 0 8 8 3 21 -13z m4905
-170 c-8 -8 -36 5 -36 17 0 7 6 7 21 0 11 -7 18 -14 15 -17z m-1803 -253 c-3
-11 -9 -18 -13 -15 -7 4 -7 18 -1 43 1 2 5 1 10 -2 5 -3 7 -15 4 -26z m252
-30 c3 -5 1 -10 -4 -10 -6 0 -11 5 -11 10 0 6 2 10 4 10 3 0 8 -4 11 -10z
m2622 -25 c0 -8 -4 -12 -9 -9 -5 3 -6 10 -3 15 9 13 12 11 12 -6z m-5342 -25
c10 -11 16 -20 13 -20 -3 0 -13 9 -23 20 -10 11 -16 20 -13 20 3 0 13 -9 23
-20z m195 -161 c13 -23 13 -29 0 -29 -5 0 -9 3 -9 8 3 20 -2 32 -16 32 -8 0
-15 4 -15 10 0 15 29 0 40 -21z m3323 -54 c-3 -9 -8 -14 -10 -11 -3 3 -2 9 2
15 9 16 15 13 8 -4z m-3172 -82 c13 -16 12 -17 -3 -4 -10 7 -18 15 -18 17 0 8
8 3 21 -13z m94 -63 c3 -6 -1 -7 -9 -4 -18 7 -21 14 -7 14 6 0 13 -4 16 -10z
m2909 -8 c3 -5 -1 -9 -9 -9 -8 0 -12 4 -9 9 3 4 7 8 9 8 2 0 6 -4 9 -8z m-951
-407 c-7 -21 -12 -19 -10 4 0 11 5 18 9 15 4 -3 5 -11 1 -19z m4472 -1625 c3
-6 -1 -7 -9 -4 -18 7 -21 14 -7 14 6 0 13 -4 16 -10z m-9514 -1107 c13 -16 12
-17 -3 -4 -17 13 -22 21 -14 21 2 0 10 -8 17 -17z m469 -578 c-7 -9 -15 -13
-19 -10 -3 3 1 10 9 15 21 14 24 12 10 -5z m8049 -139 c9 -11 9 -16 -1 -22 -7
-4 -10 -4 -6 1 4 4 3 14 -3 22 -6 7 -9 13 -6 13 2 0 10 -6 16 -14z m-6694 -14
c-3 -3 -11 0 -18 7 -9 10 -8 11 6 5 10 -3 15 -9 12 -12z m-395 -573 c0 -5 5
-7 12 -3 7 4 8 3 4 -4 -10 -17 -36 -15 -36 3 0 8 5 15 10 15 6 0 10 -5 10 -11z
m927 -1885 c-3 -3 0 -12 6 -19 9 -10 16 -10 27 -1 13 9 13 9 3 -5 -7 -9 -9
-20 -5 -25 4 -5 -5 2 -20 15 -24 21 -29 41 -11 41 4 0 4 -3 0 -6z m3919 -666
c4 -7 3 -8 -4 -4 -7 4 -12 0 -12 -10 0 -10 -3 -15 -6 -11 -7 6 2 37 10 37 3 0
8 -5 12 -12z m-3252 -177 c3 -5 -1 -11 -9 -14 -9 -4 -12 -1 -8 9 6 16 10 17
17 5z m55 -67 c4 3 8 -1 8 -9 0 -8 -2 -15 -5 -15 -7 0 -41 45 -42 55 0 5 7 -1
16 -13 8 -12 19 -20 23 -18z m64 -89 c-3 -9 -8 -14 -10 -11 -3 3 -2 9 2 15 9
16 15 13 8 -4z m261 -351 c3 -8 2 -12 -4 -9 -6 3 -10 10 -10 16 0 14 7 11 14
-7z m1526 -668 c0 -3 -4 -8 -10 -11 -5 -3 -10 -1 -10 4 0 6 5 11 10 11 6 0 10
-2 10 -4z"/>
<path d="M2196 10105 c-11 -8 -15 -15 -9 -15 6 0 16 7 23 15 16 19 11 19 -14
0z"/>
<path d="M8225 10110 c-3 -6 1 -7 9 -4 18 7 21 14 7 14 -6 0 -13 -4 -16 -10z"/>
<path d="M8270 10106 c13 -13 13 -29 1 -21 -5 3 -12 2 -14 -2 -3 -5 8 -9 24
-9 16 -1 29 3 29 9 0 5 8 3 18 -6 15 -13 21 -14 31 -4 10 10 12 8 9 -8 -1 -11
3 -20 10 -21 6 -1 17 -2 22 -3 6 0 9 -5 8 -10 -2 -5 2 -10 7 -11 6 -1 18 -9
28 -17 9 -9 17 -13 17 -8 0 4 8 1 17 -6 13 -11 12 -7 -3 16 -12 17 -19 37 -17
45 4 13 3 13 -6 0 -6 -8 -11 -13 -12 -10 -6 34 -8 43 -14 48 -3 4 -4 -6 -1
-21 5 -31 -2 -34 -30 -12 -15 12 -15 14 -2 9 12 -4 16 0 15 13 0 11 -7 20 -14
20 -10 0 -10 -4 -1 -14 8 -11 7 -12 -6 -7 -11 4 -16 14 -13 25 4 16 2 17 -14
8 -10 -5 -19 -14 -19 -20 0 -6 -7 -4 -15 5 -9 8 -23 12 -32 9 -10 -4 -14 -2
-10 4 3 5 -1 10 -9 10 -10 0 -11 -4 -4 -11z m81 -29 c-10 -9 -11 -8 -5 6 3 10
9 15 12 12 3 -3 0 -11 -7 -18z m109 -69 c0 -5 -7 -3 -15 6 -8 8 -15 18 -15 22
0 3 7 1 15 -6 8 -7 15 -17 15 -22z"/>
<path d="M8230 10090 c-9 -6 -10 -10 -3 -10 6 0 15 5 18 10 8 12 4 12 -15 0z"/>
<path d="M8187 10066 c-4 -10 -1 -13 9 -9 7 3 14 9 14 14 0 14 -17 10 -23 -5z"/>
<path d="M7596 9603 c-6 -14 -5 -15 5 -6 7 7 10 15 7 18 -3 3 -9 -2 -12 -12z"/>
<path d="M7555 9550 c3 -5 8 -10 11 -10 2 0 4 5 4 10 0 6 -5 10 -11 10 -5 0
-7 -4 -4 -10z"/>
<path d="M7516 9512 c-3 -5 1 -9 9 -9 8 0 12 4 9 9 -3 4 -7 8 -9 8 -2 0 -6 -4
-9 -8z"/>
<path d="M4430 9329 c0 -5 5 -7 10 -4 6 3 10 8 10 11 0 2 -4 4 -10 4 -5 0 -10
-5 -10 -11z"/>
<path d="M3328 9273 c7 -3 16 -2 19 1 4 3 -2 6 -13 5 -11 0 -14 -3 -6 -6z"/>
<path d="M8760 9250 c-9 -6 -10 -10 -3 -10 6 0 15 5 18 10 8 12 4 12 -15 0z"/>
<path d="M3420 9211 c0 -10 19 -25 25 -20 1 2 -3 10 -11 17 -8 7 -14 8 -14 3z"/>
<path d="M1235 5101 c-3 -5 -2 -12 3 -15 5 -3 9 1 9 9 0 17 -3 19 -12 6z"/>
<path d="M9225 4970 c-3 -5 -1 -10 5 -10 6 0 8 -5 4 -12 -4 -7 -3 -8 4 -4 6 4
9 13 5 21 -6 18 -10 19 -18 5z"/>
<path d="M2703 2823 c-22 -8 -14 -19 15 -20 15 0 19 1 9 4 -9 2 -15 9 -12 14
7 10 6 10 -12 2z"/>
<path d="M2775 2760 c-7 -12 19 -24 37 -17 7 3 3 6 -10 6 -13 1 -20 5 -17 11
3 6 4 10 1 10 -3 0 -8 -5 -11 -10z"/>
<path d="M2830 2730 c0 -5 5 -10 11 -10 5 0 7 5 4 10 -3 6 -8 10 -11 10 -2 0
-4 -4 -4 -10z"/>
<path d="M2856 2711 c-4 -5 -2 -12 3 -15 5 -4 12 -2 15 3 4 5 2 12 -3 15 -5 4
-12 2 -15 -3z"/>
<path d="M2960 2616 c0 -2 7 -7 16 -10 8 -3 12 -2 9 4 -6 10 -25 14 -25 6z"/>
<path d="M3016 2595 c4 -8 11 -15 16 -15 6 0 5 6 -2 15 -7 8 -14 15 -16 15 -2
0 -1 -7 2 -15z"/>
<path d="M7521 2581 c-7 -5 -9 -11 -5 -14 5 -3 15 1 22 9 14 16 5 18 -17 5z"/>
<path d="M3890 1502 c0 -8 -5 -10 -12 -6 -10 5 -10 4 -1 -6 16 -17 35 -9 23
10 -7 11 -10 11 -10 2z"/>
<path d="M5535 450 c-3 -5 -5 -10 -3 -11 33 -8 38 -7 27 7 -14 17 -16 17 -24
4z"/>
</g>
</svg>
